%YAML 1.1
%TAG !u! tag:unity3d.com,2011:
--- !u!114 &11400000
MonoBehaviour:
  m_ObjectHideFlags: 0
  m_CorrespondingSourceObject: {fileID: 0}
  m_PrefabInstance: {fileID: 0}
  m_PrefabAsset: {fileID: 0}
  m_GameObject: {fileID: 0}
  m_Enabled: 1
  m_EditorHideFlags: 0
  m_Script: {fileID: 11500000, guid: 339f0b4d78164e642866a882cae146bd, type: 3}
  m_Name: Teleport
  m_EditorClassIdentifier: 
  Name: Teleportation
  Description: On ne peux toucher le porteur de ce talent si il est toujours en mouvement.
  Sprite: {fileID: 21300000, guid: eac41a9fb5c64a44fad530ba17a6860a, type: 3}
  LavaSymbolMaterial: {fileID: 2100000, guid: cecd9676a13574644a980a0384a992f8, type: 2}
